318555 266127 407
96814 821956 509
580043 573214 390
182531 425142 449
398137 392256 405
419479 740797 509
653937 543996 509
49880 853522 525
465065 997329 525
522709 601866 452
975199 809315 525
754505 947231 525
143421 343744 443
905144 932893 476
604856 112917 470
530213 722052 509
424659 817787 509
44170 524851 470
904835 793461 525
868809 906898 445
541877 959281 525
712970 975330 525
481036 525907 470
944837 523673 525
458847 286424 449
351126 996475 525
874055 571808 525
621880 1538 470
669924 301446 509
651642 397089 509
687896 608415 509
964108 196597 525
849930 976532 507
573485 157339 470
10795 637424 509
277380 76382 443
245316 717464 509
561065 989880 525
145723 668380 509
153462 793662 509
251105 387270 441
391560 99797 443
795000 461790 509
204912 201043 342
862517 518220 525
348018 412127 449
583403 596572 434
435052 404843 449
794232 69032 509
208574 936218 525
72689 875127 525
390903 7016 443
593460 579039 434
999301 470197 525
283862 440756 449
157530 881148 525
416905 230647 449
671400 234903 509
457978 644502 509
282990 976843 525
793973 288704 509
133988 491192 449
931701 756574 525
766936 48736 509
896846 497530 525
526266 102262 470
988144 719891 525
483181 877856 525
192464 417585 449
499081 793270 509
56269 606274 470
928746 512807 525
659451 568137 509
774854 529290 509
744469 113462 509
580573 137887 470
86845 792501 509
4022 523965 470
557884 757652 509
207993 61838 383
895779 367236 525
390332 993990 525
610329 970807 525
139435 310717 443
750297 97428 509
551126 948859 525
765728 727238 424
37700 426300 449
284671 862066 525
677927 253684 509
146127 809019 509
816162 418956 509
318498 439045 449
745672 699889 504
4535 614815 470
820236 876551 525
137863 492809 449
117331 939119 525
983272 270884 525
512523 598639 452
655071 731949 504
225747 46670 386
419782 333658 449
851861 118984 525
471318 650748 509
556422 554034 421
338562 535819 470
311366 342490 384
348412 887117 525
361034 240288 441
919005 748350 525
626744 2245 509
926733 740620 525
688166 947114 525
194515 808858 509
329882 261092 407
538962 61392 470
64525 684019 509
599180 823853 509
107721 191983 383
232245 721356 509
544548 397517 470
418839 725968 509
655005 220673 509
654060 627115 416
996260 265741 525
242189 492631 449
984879 916648 507
738311 403799 509
580595 264789 470
391114 6152 443
140087 682559 509
760576 549097 509
972715 221081 525
518243 775208 509
584048 952834 525
804153 686117 504
128426 680156 509
704366 261379 509
139632 121846 344
491967 328852 449
53039 478531 449
488203 60554 449
233909 310401 407
6404 214869 383
101728 308264 443
344377 114397 443
162630 934632 525
355816 747750 509
843014 247213 525
712721 587948 509
502179 89239 449
885897 915140 476
313006 883926 525
573961 29316 470
203002 1624 383
350197 463238 449
127629 425069 449
105869 816247 509
358159 726604 509
707714 935345 525
125954 59243 354
695461 942672 525
689455 446614 509
763136 898757 525
372551 385558 423
403158 705499 509
877249 14622 525
921686 101370 525
419207 714915 509
922787 421344 525
404528 142884 443
553894 914155 525
426868 976217 525
906652 215487 525
847381 439872 525
178863 684860 509
636948 771631 504
216110 692450 509
363502 683559 509
98385 865715 525
903170 223906 525
551813 485938 470
380078 598369 470
565338 586402 434
834172 929120 525
340154 879512 525
353199 521514 470
667482 985759 525
236328 187747 443
34069 893657 525
96611 487539 449
390491 795666 509
221316 892923 525
115366 932384 525
919838 783394 525
415572 606036 470
25597 636709 509
376152 189037 443
940313 515374 525
668141 883394 525
521717 831002 509
546404 375320 470
504087 758263 509
746629 784954 468
159447 37911 383
312247 466502 449
942579 282300 525
592978 432278 470
329358 209085 443
980619 608239 525
539425 560376 452
494779 821668 509
