740693 24794
69920 876823
732545 472989
55716 746786
59828 241026
399068 605539
81501 658055
797420 298227
454165 457294
594294 17719
720988 264138
821114 725804
496626 303254
89082 645741
641275 447512
752095 914059
286467 320968
422745 212220
966409 157816
369298 870921
8991 695649
526571 843805
816104 947993
360148 357262
118097 705287
141335 736393
519384 82854
332022 609849
862364 44916
80973 454110
144597 95079
784797 59878
711585 882779
989076 829323
760115 34894
412999 357837
901748 968117
484162 617816
326293 973751
979295 342920
937761 903111
539167 967298
254412 743480
692573 301789
469923 886761
168234 203578
898940 21538
138881 567002
37780 921885
556578 820539
420472 47814
903620 311807
975983 783271
314451 823916
627289 914196
368021 825483
651002 771979
593921 139711
585620 678787
124963 92391
595955 143614
146181 569730
590364 69819
274584 619329
903236 850536
418053 420398
817671 842485
826988 312664
544903 880844
139409 865047
981389 275028
300955 839458
492846 49866
42566 541185
823847 834960
897667 88684
653730 1906
22082 90413
635078 754935
133422 304414
404055 461597
977562 443351
195125 200379
730308 259848
445884 199699
261832 339487
300967 653898
47034 878536
407484 244830
505214 352331
557264 706320
277218 85027
553978 133521
10597 799248
240618 471362
842665 917912
764421 390675
158473 793231
558569 949236
779737 739523
539491 710597
693274 658210
13863 227102
781448 853402
697124 189954
556478 131722
782044 159382
466445 102383
50761 973454
583322 357869
463967 955292
74602 930585
405001 719451
11172 526808
14840 384591
328113 356571
640890 390985
725424 663951
674339 375680
890210 435391
167917 887505
352861 214569
975817 978883
734970 501895
352562 964317
707521 194886
532866 172488
65958 609147
514889 141247
19867 768852
117358 939761
623845 570569
4944 904760
471139 327326
573189 664043
498761 923994
631490 777303
235338 634316
71002 822275
599257 419743
540694 186507
422430 796710
751579 711658
181896 518175
202303 671646
812966 124468
269190 607865
677528 612001
49278 78215
64918 404427
684788 130094
703147 101407
218884 195878
365540 823872
554734 876852
510544 33584
511247 833268
805818 570555
769128 858478
547427 82633
766227 385580
254842 305186
516275 430129
612160 522611
166687 149548
242978 411524
886242 828574
967336 71815
107802 501550
613661 934007
152948 732206
878951 460273
250290 486778
109016 351576
90875 949356
85338 740282
47241 264809
179023 466844
661694 337642
783909 998947
948109 626680
920356 455397
78378 87684
992862 120070
568232 805179
680875 626294
697484 281457
933566 835969
410511 108296
379761 623244
554340 524691
606658 44612
111291 872186
595335 530258
765969 607753
215962 885360
382512 478014
44797 999775
362651 40038
347652 142408
221421 39209
44540 569252
834519 161364
861695 567949
750037 919703
124934 156302
382069 800470
58962 454112
469554 312218
157546 187890
431299 492473
920599 83182
549875 606798
502113 702020
354506 91539
267720 698351
218596 25937
577035 733569
935793 962746
295254 739929
591185 80399
644319 527843
685852 290680
935953 565304
479007 403551
141975 994417
291780 899010
630759 126352
138749 738241
419478 671019
436936 428544
945314 497187
375280 260081
842427 929057
525768 19421
147524 107624
192090 469059
81865 941162
749620 688757
175215 704125
751001 594167
395297 380574
447311 392780
558 479465
69607 105112
583244 246057
432596 451115
936464 506410
171397 343911
967192 649957
183380 409549
88856 679971
466159 311860
705657 666431
812567 716887
941328 826365
185355 776345
783186 158802
492659 519148
103561 170506
581527 780465
779581 906322
909995 757634
143915 438134
570827 804975
556320 67000
864331 190502
47609 470684
