772108 109435 509
509788 490296 426
518209 384512 470
847717 52494 525
721990 116490 509
388241 353749 423
17617 533742 470
504600 502982 364
430788 112951 449
627328 150423 509
48228 570040 470
142546 824971 509
533917 924944 525
372414 868027 525
448535 807503 509
531693 453757 470
77337 761915 509
322805 276613 389
189297 872818 525
429955 505036 444
463216 448794 444
189894 83730 383
705292 893895 525
412604 713864 509
421968 414725 387
685519 7269 509
627181 498659 509
591766 951142 525
863096 335807 525
306148 190186 443
13712 970214 525
806419 782768 468
328834 207101 443
738025 676066 504
560432 536021 452
353034 746003 509
324509 332062 384
57670 38243 340
972149 690952 525
211055 732093 509
247107 568374 470
892066 689891 525
491908 929521 525
24227 222067 386
514895 215221 470
149464 622366 470
124142 54258 354
174234 366760 443
544291 751188 509
314276 235348 407
379583 467237 449
961899 192257 525
53662 201495 383
229299 958926 525
420026 671130 509
735721 363832 509
233397 827675 509
666107 160738 509
512488 382534 470
501590 273128 449
552993 354404 470
248407 710686 509
845682 602577 525
147287 422707 449
379976 897135 525
882808 706846 525
20316 301884 443
179557 974863 525
482717 34964 449
113621 398602 443
68946 708700 509
20020 553400 470
661571 218600 509
180748 930907 525
943252 305857 525
423132 278127 449
890253 796696 525
631618 937887 525
440971 463644 444
401350 936349 525
747018 745540 349
527972 611193 452
429406 558952 470
299777 910512 525
951272 324416 525
861790 415397 525
961028 979418 458
757005 866776 525
771446 127431 509
161671 798412 509
896313 586502 525
295369 219120 443
731772 854150 525
724608 479401 509
190038 381260 443
948302 291665 525
109211 319328 443
998515 569127 525
684083 483966 509
224463 244865 443
730589 79610 509
377083 543821 470
229098 955194 525
580539 637688 509
518573 152036 470
34099 747023 509
670432 103115 509
284422 983989 525
536890 807921 509
867006 758126 525
785788 902380 525
142439 605702 470
596498 566818 434
465786 712413 509
718925 389845 509
429570 4754 449
867092 877709 432
75162 640865 509
138968 40652 354
120765 239492 443
132445 700842 509
324131 272759 389
593963 885022 525
90969 651036 509
779985 422334 509
101213 667907 509
832916 140204 509
619897 974888 525
378998 925153 525
630973 604104 509
753623 419081 509
667760 515129 509
404880 358574 436
832297 112902 509
872674 759430 525
357792 531453 470
315373 263964 407
976865 482700 525
839110 550686 525
203418 756173 509
400218 704227 509
342868 706630 509
950349 574690 525
105622 736534 509
201454 863750 525
393528 809355 509
714330 821230 468
648950 580263 509
797155 830921 450
218714 687438 509
96114 456953 449
371675 256582 441
226862 48358 386
598181 695432 509
584065 699829 509
493054 707344 509
885525 210609 525
185805 712380 509
501078 651707 509
374931 22213 443
890036 261009 525
127047 580536 470
980096 515162 525
275690 169845 443
53388 299436 443
59149 503545 449
105545 543501 470
971021 697971 525
486406 733832 509
374569 13130 443
606519 639798 509
612191 64209 470
631653 445169 509
700741 350279 509
251311 781023 509
975515 823629 525
718468 103026 509
921679 611857 525
889564 140912 525
334151 294825 384
715659 913164 525
215133 172255 373
598536 460347 470
415019 621261 470
370637 73399 443
833180 305532 509
1664 633683 509
508715 512700 470
316660 763082 509
946538 817974 525
142221 841265 525
925375 806585 525
799789 790574 468
931048 85711 525
876559 923777 476
246524 308367 407
193658 426253 449
662889 134556 509
315792 626051 470
214993 427025 449
27923 664545 509
928794 754679 525
617363 652493 509
175421 801223 509
283907 517449 470
13459 116203 354
126601 42009 354
602260 977082 525
791083 493292 509
848085 962442 507
279685 815671 509
262770 338265 407
802802 556964 509
571474 365194 470
760327 606899 509
335479 789577 509
355083 262204 441
871372 420840 525
772811 63276 509
535410 164618 470
987066 854183 507
335102 239397 407
568594 347514 470
755665 863862 525
805532 598432 509
871786 866301 388
968600 197710 525
218360 145918 386
524353 751281 509
661392 451953 509
481677 134332 449
856671 406048 525
223845 321134 443
236152 52148 443
454872 610802 470
32393 522068 470
566684 936067 525
333581 588952 470
492062 388144 449
150137 664537 509
480874 50228 449
564493 690867 509
839365 178356 525
757456 176668 509
411121 564574 470
5189 231254 443
977923 713323 525
214351 985955 525
493043 432689 444
341399 780160 509
